{
  "project_info": {
    "project_number": "214884296548",
    "project_id": "mygalleria-8b2a2",
    "storage_bucket": "mygalleria-8b2a2.appspot.com"
  },
  "client": [
    {
      "client_info": {
        "mobilesdk_app_id": "1:214884296548:android:279e79412c7ecc0b07bc71",
        "android_client_info": {
          "package_name": "com.jutt.knightinterview"
        }
      },
      "oauth_client": [
        {
          "client_id": "214884296548-lkqqrgt37rhu3e8c526cvh4kmh0jbkjm.apps.googleusercontent.com",
          "client_type": 1,
          "android_info": {
            "package_name": "com.jutt.knightinterview",
            "certificate_hash": "3793be3cdbdd4625cdd598e47d2f8de9d351251c"
          }
        },
        {
          "client_id": "214884296548-iceio3v8u8ccc85ruu4ur0hodckcgkc3.apps.googleusercontent.com",
          "client_type": 3
        }
      ],
      "api_key": [
        {
          "current_key": "AIzaSyBN-xUOgOMXBBTiORmPQ3gK_Z3y1q9kons"
        }
      ],
      "services": {
        "appinvite_service": {
          "other_platform_oauth_client": [
            {
              "client_id": "214884296548-iceio3v8u8ccc85ruu4ur0hodckcgkc3.apps.googleusercontent.com",
              "client_type": 3
            }
          ]
        }
      }
    },
    {
      "client_info": {
        "mobilesdk_app_id": "1:214884296548:android:ee4123d3482a4b5607bc71",
        "android_client_info": {
          "package_name": "com.jutt.knightinterview.internal"
        }
      },
      "oauth_client": [
        {
          "client_id": "214884296548-ggn9p5afbi2kfumqr84gr185dhuic9gk.apps.googleusercontent.com",
          "client_type": 1,
          "android_info": {
            "package_name": "com.jutt.knightinterview.internal",
            "certificate_hash": "ce57628e06074e2c98672aca17b7734a304b74cf"
          }
        },
        {
          "client_id": "214884296548-iceio3v8u8ccc85ruu4ur0hodckcgkc3.apps.googleusercontent.com",
          "client_type": 3
        }
      ],
      "api_key": [
        {
          "current_key": "AIzaSyBN-xUOgOMXBBTiORmPQ3gK_Z3y1q9kons"
        }
      ],
      "services": {
        "appinvite_service": {
          "other_platform_oauth_client": [
            {
              "client_id": "214884296548-iceio3v8u8ccc85ruu4ur0hodckcgkc3.apps.googleusercontent.com",
              "client_type": 3
            }
          ]
        }
      }
    },
    {
      "client_info": {
        "mobilesdk_app_id": "1:214884296548:android:a9ad089aa262727007bc71",
        "android_client_info": {
          "package_name": "com.jutt.medsreminders"
        }
      },
      "oauth_client": [
        {
          "client_id": "214884296548-7qq92p8ebnj9mta0e9fc3lb9b8qpmdfq.apps.googleusercontent.com",
          "client_type": 1,
          "android_info": {
            "package_name": "com.jutt.medsreminders",
            "certificate_hash": "6f0f49a5da099e183b470ec87c09c9f7adcc1dce"
          }
        },
        {
          "client_id": "214884296548-iceio3v8u8ccc85ruu4ur0hodckcgkc3.apps.googleusercontent.com",
          "client_type": 3
        }
      ],
      "api_key": [
        {
          "current_key": "AIzaSyBN-xUOgOMXBBTiORmPQ3gK_Z3y1q9kons"
        }
      ],
      "services": {
        "appinvite_service": {
          "other_platform_oauth_client": [
            {
              "client_id": "214884296548-iceio3v8u8ccc85ruu4ur0hodckcgkc3.apps.googleusercontent.com",
              "client_type": 3
            }
          ]
        }
      }
    },
    {
      "client_info": {
        "mobilesdk_app_id": "1:214884296548:android:a39cf3fdcdcfb07d07bc71",
        "android_client_info": {
          "package_name": "com.jutt.medsreminders.internal"
        }
      },
      "oauth_client": [
        {
          "client_id": "214884296548-hsfommlq7p7b0s610fm6mp879sa2vh3q.apps.googleusercontent.com",
          "client_type": 1,
          "android_info": {
            "package_name": "com.jutt.medsreminders.internal",
            "certificate_hash": "6f0f49a5da099e183b470ec87c09c9f7adcc1dce"
          }
        },
        {
          "client_id": "214884296548-iceio3v8u8ccc85ruu4ur0hodckcgkc3.apps.googleusercontent.com",
          "client_type": 3
        }
      ],
      "api_key": [
        {
          "current_key": "AIzaSyBN-xUOgOMXBBTiORmPQ3gK_Z3y1q9kons"
        }
      ],
      "services": {
        "appinvite_service": {
          "other_platform_oauth_client": [
            {
              "client_id": "214884296548-iceio3v8u8ccc85ruu4ur0hodckcgkc3.apps.googleusercontent.com",
              "client_type": 3
            }
          ]
        }
      }
    },
    {
      "client_info": {
        "mobilesdk_app_id": "1:214884296548:android:94cc9ba2915b4b3e07bc71",
        "android_client_info": {
          "package_name": "com.jutt.mygalleria"
        }
      },
      "oauth_client": [
        {
          "client_id": "214884296548-7oenu8ne27cpmckm6gcndbiufgbmjtmj.apps.googleusercontent.com",
          "client_type": 1,
          "android_info": {
            "package_name": "com.jutt.mygalleria",
            "certificate_hash": "dc781c2b6db4dee1b962396aeb7967433b900589"
          }
        },
        {
          "client_id": "214884296548-iceio3v8u8ccc85ruu4ur0hodckcgkc3.apps.googleusercontent.com",
          "client_type": 3
        }
      ],
      "api_key": [
        {
          "current_key": "AIzaSyBN-xUOgOMXBBTiORmPQ3gK_Z3y1q9kons"
        }
      ],
      "services": {
        "appinvite_service": {
          "other_platform_oauth_client": [
            {
              "client_id": "214884296548-iceio3v8u8ccc85ruu4ur0hodckcgkc3.apps.googleusercontent.com",
              "client_type": 3
            }
          ]
        }
      }
    },
    {
      "client_info": {
        "mobilesdk_app_id": "1:214884296548:android:0bd81132d20946be07bc71",
        "android_client_info": {
          "package_name": "com.jutt.mygalleria.internal"
        }
      },
      "oauth_client": [
        {
          "client_id": "214884296548-8d6jmibdeeqjva1vu116ch6ldprh3uag.apps.googleusercontent.com",
          "client_type": 1,
          "android_info": {
            "package_name": "com.jutt.mygalleria.internal",
            "certificate_hash": "dc781c2b6db4dee1b962396aeb7967433b900589"
          }
        },
        {
          "client_id": "214884296548-iceio3v8u8ccc85ruu4ur0hodckcgkc3.apps.googleusercontent.com",
          "client_type": 3
        }
      ],
      "api_key": [
        {
          "current_key": "AIzaSyBN-xUOgOMXBBTiORmPQ3gK_Z3y1q9kons"
        }
      ],
      "services": {
        "appinvite_service": {
          "other_platform_oauth_client": [
            {
              "client_id": "214884296548-iceio3v8u8ccc85ruu4ur0hodckcgkc3.apps.googleusercontent.com",
              "client_type": 3
            }
          ]
        }
      }
    }
  ],
  "configuration_version": "1"
}